module gitlab.com/thalesfaggiano/ge-stress-test

go 1.22.3

require (
	github.com/davecgh/go-spew v1.1.1 // indirect
	github.com/pmezard/go-difflib v1.0.0 // indirect
	github.com/stretchr/objx v0.5.2 // indirect
	gopkg.in/yaml.v3 v3.0.1 // indirect
)

require github.com/stretchr/testify v1.9.0
